strain_11,stress_11,aps
  2.4494897640749856E-003 ,   313.09267352417783      ,   0.0000000000000000     
  4.8989795281499712E-003 ,   428.29038104494964      ,   1.8121527603916917E-003
  7.3484692922249567E-003 ,   480.84164426078121      ,   4.2068211943993234E-003
  9.7979590562999423E-003 ,   518.14725456871054      ,   6.7493585067215540E-003
  1.2247448820374929E-002 ,   547.30121198589518      ,   9.3727203938500422E-003
  1.4696938584449915E-002 ,   571.25042077169337      ,   1.2048130831528883E-002
  1.7146428348524902E-002 ,   591.54269990659839      ,   1.4760125799289097E-002
  1.9595918112599888E-002 ,   609.10507521425961      ,   1.7499331210743960E-002
  2.2045407876674875E-002 ,   624.54312465009639      ,   2.0259600588478997E-002
  2.4494897640749861E-002 ,   638.27753742166726      ,   2.3036670991308038E-002
  2.6944387404824847E-002 ,   650.61415822716867      ,   2.5827457423593863E-002
  2.9393877168899834E-002 ,   661.78320668481717      ,   2.8629651366393297E-002
  3.1843366932974820E-002 ,   671.96278658978656      ,   3.1441477892774038E-002
  3.4292856697049803E-002 ,   681.29376278612517      ,   3.4261541414491066E-002
  3.6742346461124786E-002 ,   689.88959689444869      ,   3.7088723763331194E-002
  3.9191836225199769E-002 ,   697.84308813704956      ,   3.9922114589206206E-002
  4.1641325989274752E-002 ,   705.23113351188169      ,   4.2760962471660176E-002
  4.4090815753349735E-002 ,   712.11817538786624      ,   4.5604639734675517E-002
  4.6540305517424718E-002 ,   718.55875308217674      ,   4.8452616578552182E-002
  4.8989795281499701E-002 ,   724.59942700922591      ,   5.1304441700332229E-002
  5.1439285045574684E-002 ,   730.28025366482461      ,   5.4159727530028373E-002
  5.3888774809649667E-002 ,   735.63593277634891      ,   5.7018138813468351E-002
  5.6338264573724650E-002 ,   740.69671104607937      ,   5.9879383663463993E-002
  5.8787754337799633E-002 ,   745.48910239681402      ,   6.2743206459962467E-002
  6.1237244101874616E-002 ,   750.03646797942031      ,   6.5609382154898588E-002
  6.3686733865949599E-002 ,   754.35948767296634      ,   6.8477711658023063E-002
  6.6136223630024582E-002 ,   758.47654668340056      ,   7.1348018064416402E-002
  6.8585713394099565E-002 ,   762.40405502961005      ,   7.4220143544460618E-002
  7.1035203158174548E-002 ,   766.15671348023830      ,   7.7093946760384113E-002
  7.3484692922249531E-002 ,   769.74773639468526      ,   7.9969300705190538E-002
  7.5934182686324514E-002 ,   773.18903960494663      ,   8.2846090883250470E-002
  7.8383672450399497E-002 ,   776.49139972977218      ,   8.5724213769409502E-002
  8.0833162214474480E-002 ,   779.66458998444284      ,   8.8603575496771544E-002
  8.3282651978549463E-002 ,   782.71749652895573      ,   9.1484090733488524E-002
  8.5732141742624446E-002 ,   785.65821860632150      ,   9.4365681716739355E-002
  8.8181631506699429E-002 ,   788.49415510436154      ,   9.7248277418192849E-002
  9.0631121270774412E-002 ,   791.23207968734573      ,  0.10013181282004742     
  9.3080611034849395E-002 ,   793.87820625741460      ,  0.10301622828453509     
  9.5530100798924378E-002 ,   796.43824619705276      ,  0.10590146900280004     
  9.7979590562999361E-002 ,   798.91745859574644      ,  0.10878748451148684     
 0.10042908032707434      ,   801.32069446327091      ,  0.11167422826732989     
 0.10287857009114933      ,   803.65243576881039      ,  0.11456165727162498     
 0.10532805985522431      ,   805.91683001162778      ,  0.11744973173776035     
 0.10777754961929929      ,   808.11772091927435      ,  0.12033841479605038     
 0.11022703938337428      ,   810.25867577871713      ,  0.12322767223099262     
 0.11267652914744926      ,   812.34300983056096      ,  0.12611747224679773     
 0.11512601891152424      ,   814.37380809389015      ,  0.12900778525764767     
 0.11757550867559922      ,   816.35394493681406      ,  0.13189858369964477     
 0.12002499843967421      ,   818.28610166375267      ,  0.13478984186183970     
 0.12247448820374919      ,   820.17278235334061      ,  0.13768153573408518     
 0.12492397796782417      ,   822.01632814939228      ,  0.14057364286976587     
 0.12737346773189917      ,   823.81893018065921      ,  0.14346614226171245     
 0.12982295749597417      ,   825.58264126235349      ,  0.14635901422982700     
 0.13227244726004916      ,   827.30938651296390      ,  0.14925224031913514     
 0.13472193702412416      ,   829.00097300320806      ,  0.15214580320714022     
 0.13717142678819916      ,   830.65909853961512      ,  0.15503968661949355     
 0.13962091655227415      ,   832.28535967287667      ,  0.15793387525311367     
 0.14207040631634915      ,   833.88125901039177      ,  0.16082835470599119     
 0.14451989608042415      ,   835.44821190317589      ,  0.16372311141300341     
 0.14696938584449915      ,   836.98755256922857      ,  0.16661813258714278     
 0.14941887560857414      ,   838.50053970844635      ,  0.16951340616562893     
 0.15186836537264914      ,   839.98836165803061      ,  0.17240892076043393     
 0.15431785513672414      ,   841.45214113197301      ,  0.17530466561280195     
 0.15676734490079913      ,   842.89293958349458      ,  0.17820063055138954     
 0.15921683466487413      ,   844.31176122518696      ,  0.18109680595369265     
 0.16166632442894913      ,   845.70955673794617      ,  0.18399318271046169     
 0.16411581419302412      ,   847.08722669658675      ,  0.18688975219283668     
 0.16656530395709912      ,   848.44562473717451      ,  0.18978650622196189     
 0.16901479372117412      ,   849.78556048860287      ,  0.19268343704086363     
 0.17146428348524911      ,   851.10780228870226      ,  0.19558053728839636     
 0.17391377324932411      ,   852.41307970318621      ,  0.19847779997508092     
 0.17636326301339911      ,   853.70208586396734      ,  0.20137521846067682     
 0.17881275277747410      ,   854.97547964181013      ,  0.20427278643334412     
 0.18126224254154910      ,   856.23388766686276      ,  0.20717049789026534     
 0.18371173230562410      ,   857.47790620937008      ,  0.21006834711960892     
 0.18616122206969909      ,   858.70810293172030      ,  0.21296632868372758     
 0.18861071183377409      ,   859.92501852198961      ,  0.21586443740349345     
 0.19106020159784909      ,   861.12916821821295      ,  0.21876266834368180     
 0.19350969136192409      ,   862.32104323181591      ,  0.22166101679932224     
 0.19595918112599908      ,   863.50111207788825      ,  0.22455947828294370     
 0.19840867089007408      ,   864.66982181932144      ,  0.22745804851264564     
 0.20085816065414908      ,   865.82759923123092      ,  0.23035672340093405     
